class_name,class_0,class_1
is_a,True,False
is_cherry,True,False
is_dix,True,False
is_douze,True,False
is_env1,True,False
is_env2,True,False
is_gold,True,False
is_house,True,False
is_k,True,False
is_kid,True,False
is_lamp,True,False
is_neuf,True,False
is_onze,False,True
is_wild1,False,True
is_wild2,False,True
is_wild3,False,True
